{
  "name": "golf",
  "attributes": [
    "outlook", "temperature", "humidity", "windy"
  ],
  "goal": "play",
  "data": [
    {
      "outlook":     "sunny",
      "temperature": 85,
      "humidity":    85,
      "windy":       "false",
      "play":        "don't play"
    },
    {
      "outlook":     "sunny",
      "temperature": 80,
      "humidity":    90,
      "windy":       "true",
      "play":        "don't play"
    },
    {
      "outlook":     "overcast",
      "temperature": 83,
      "humidity":    78,
      "windy":       "false",
      "play":        "play"
    },
    {
      "outlook":     "rain",
      "temperature": 70,
      "humidity":    96,
      "windy":       "false",
      "play":        "play"
    },
    {
      "outlook":     "rain",
      "temperature": 68,
      "humidity":    80,
      "windy":       "false",
      "play":        "play"
    },
    {
      "outlook":     "rain",
      "temperature": 65,
      "humidity":    70,
      "windy":       "true",
      "play":        "don't play"
    },
    {
      "outlook":     "overcast",
      "temperature": 64,
      "humidity":    65,
      "windy":       "true",
      "play":        "play"
    },
    {
      "outlook":     "sunny",
      "temperature": 72,
      "humidity":    95,
      "windy":       "false",
      "play":        "don't play"
    },
    {
      "outlook":     "sunny",
      "temperature": 69,
      "humidity":    70,
      "windy":       "false",
      "play":        "play"
    },
    {
      "outlook":     "rain",
      "temperature": 75,
      "humidity":    80,
      "windy":       "false",
      "play":        "play"
    },
    {
      "outlook":     "sunny",
      "temperature": 75,
      "humidity":    70,
      "windy":       "true",
      "play":        "play"
    },
    {
      "outlook":     "overcast",
      "temperature": 72,
      "humidity":    90,
      "windy":       "true",
      "play":        "play"
    },
    {
      "outlook":     "overcast",
      "temperature": 81,
      "humidity":    75,
      "windy":       "false",
      "play":        "play"
    },
    {
      "outlook":     "rain",
      "temperature": 71,
      "humidity":    80,
      "windy":       "true",
      "play":        "don't play"
    }
  ]
}
